<?xml version="1.0" encoding="utf-8"?>
<!-- Generator: Adobe Illustrator 24.2.3, SVG Export Plug-In . SVG Version: 6.00 Build 0)  -->
<svg version="1.1" id="Layer_1" xmlns="http://www.w3.org/2000/svg" xmlns:xlink="http://www.w3.org/1999/xlink" x="0px" y="0px"
	 viewBox="0 0 1190.5 841.9" style="enable-background:new 0 0 1190.5 841.9;" xml:space="preserve">
<style type="text/css">
	.st0{fill:#FFFFFF;}
</style>
<g>
	<polygon class="st0" points="479.6,475.5 510.3,475.5 510.3,437.5 479.6,393.1 	"/>
	<polygon class="st0" points="510.3,410 510.3,365.6 479.6,365.6 	"/>
</g>
<polygon class="st0" points="130,365.1 161.1,432.5 140.8,432.5 126.3,401.2 91.6,476 123.7,476 130.5,461.3 174.5,461.3 181.3,476 
	213.5,476 162,365.1 "/>
<g>
	<polygon class="st0" points="389.6,365.6 354.6,365.6 335.1,396.5 315.5,365.6 281.2,365.6 282.6,367.6 356.9,475.5 391.2,475.5 
		353.5,419.6 	"/>
	<polygon class="st0" points="279.7,475.5 314.7,475.5 325.4,458.6 307.7,433.7 	"/>
</g>
<path class="st0" d="M656.4,449.9c-15.4,0-26.2-12.9-26.2-29.4v-0.3c0-16,10.8-29.1,26.2-29.1c10.5,0,17.7,5,24,12.9l22.9-17.7
	c-9.7-13.5-24.2-22.9-46.6-22.9c-33.3,0-58,25.1-58,57.2v0.3c0,32.8,25.3,56.9,56.7,56.9c24.3,0,38.3-10.5,48.7-24.8l-22.9-16.3
	C674.6,444.6,667.8,449.9,656.4,449.9z"/>
<g>
	<polygon class="st0" points="979.4,475.5 1010,475.5 1010,437.5 979.4,393.1 	"/>
	<polygon class="st0" points="1067,365.6 1041,408.1 1012.3,365.6 979.4,365.6 1041,455.4 1069.3,412.7 1069.3,475.5 1099.1,475.5 
		1099.1,365.6 	"/>
</g>
<path class="st0" d="M843.8,363.4c-33.9,0-59.4,25.6-59.4,57.2v0.3c0,31.6,25.1,56.9,59.1,56.9c33.9,0,59.4-25.6,59.4-57.2v-0.3
	C902.9,388.6,877.7,363.4,843.8,363.4z M871.8,420.8c0,15.9-11.1,29.4-28,29.4c-16.6,0-28.1-13.8-28.1-29.7v-0.3
	c0-15.9,11.1-29.4,27.8-29.4c16.8,0,28.3,13.8,28.3,29.7V420.8z"/>
</svg>
