<?xml version="1.0" encoding="utf-8"?>
<!-- Generator: Adobe Illustrator 23.0.3, SVG Export Plug-In . SVG Version: 6.00 Build 0)  -->
<svg version="1.1" id="Layer_1" xmlns="http://www.w3.org/2000/svg" xmlns:xlink="http://www.w3.org/1999/xlink" x="0px" y="0px"
	 viewBox="0 0 1103.5 173" style="enable-background:new 0 0 1103.5 173;" xml:space="preserve">
<style type="text/css">
	.st0{fill:#FFFFFF;}
</style>
<g>
	<polygon class="st0" points="392.6,138.5 423.3,138.5 423.3,100.5 392.6,56.1 	"/>
	<polygon class="st0" points="423.3,73 423.3,28.6 392.6,28.6 	"/>
</g>
<polygon class="st0" points="43,28.1 74.1,95.5 53.8,95.5 39.3,64.2 4.6,139 36.7,139 43.5,124.3 87.5,124.3 94.3,139 126.5,139 
	75,28.1 "/>
<g>
	<polygon class="st0" points="302.6,28.6 267.6,28.6 248.1,59.5 228.5,28.6 194.2,28.6 195.6,30.6 269.9,138.5 304.2,138.5 
		266.5,82.6 	"/>
	<polygon class="st0" points="192.7,138.5 227.7,138.5 238.4,121.6 220.7,96.7 	"/>
</g>
<path class="st0" d="M569.4,112.9c-15.4,0-26.2-12.9-26.2-29.4v-0.3c0-16,10.8-29.1,26.2-29.1c10.5,0,17.7,5,24,12.9l22.9-17.7
	c-9.7-13.5-24.2-22.9-46.6-22.9c-33.3,0-58,25.1-58,57.2v0.3c0,32.8,25.3,56.9,56.7,56.9c24.3,0,38.3-10.5,48.7-24.8l-22.9-16.3
	C587.6,107.6,580.8,112.9,569.4,112.9z"/>
<g>
	<polygon class="st0" points="892.4,138.5 923,138.5 923,100.5 892.4,56.1 	"/>
	<polygon class="st0" points="980,28.6 954,71.1 925.3,28.6 892.4,28.6 954,118.4 982.3,75.7 982.3,138.5 1012.1,138.5 1012.1,28.6 
			"/>
</g>
<path class="st0" d="M756.8,26.4c-33.9,0-59.4,25.6-59.4,57.2v0.3c0,31.6,25.1,56.9,59.1,56.9c33.9,0,59.4-25.6,59.4-57.2v-0.3
	C815.9,51.6,790.7,26.4,756.8,26.4z M784.8,83.8c0,15.9-11.1,29.4-28,29.4c-16.6,0-28.1-13.8-28.1-29.7v-0.3
	c0-15.9,11.1-29.4,27.8-29.4c16.8,0,28.3,13.8,28.3,29.7V83.8z"/>
</svg>
